<?xml version="1.0" encoding="UTF-8" standalone="no"?>
<!-- Created with Inkscape (http://www.inkscape.org/) -->

<svg
   xmlns:dc="http://purl.org/dc/elements/1.1/"
   xmlns:cc="http://creativecommons.org/ns#"
   xmlns:rdf="http://www.w3.org/1999/02/22-rdf-syntax-ns#"
   xmlns:svg="http://www.w3.org/2000/svg"
   xmlns="http://www.w3.org/2000/svg"
   xmlns:xlink="http://www.w3.org/1999/xlink"
   xmlns:sodipodi="http://sodipodi.sourceforge.net/DTD/sodipodi-0.dtd"
   xmlns:inkscape="http://www.inkscape.org/namespaces/inkscape"
   width="512"
   height="514"
   viewBox="0 0 135.47 135.99583"
   version="1.1"
   id="svg8"
   enable-background="new"
   inkscape:version="0.92.4 (unknown)"
   sodipodi:docname="icon.svg">
  <defs
     id="defs2">
    <linearGradient
       inkscape:collect="always"
       id="linearGradient1318">
      <stop
         style="stop-color:#80cc28;stop-opacity:1;"
         offset="0"
         id="stop1314" />
      <stop
         style="stop-color:#80cc28;stop-opacity:0;"
         offset="1"
         id="stop1316" />
    </linearGradient>
    <marker
       inkscape:stockid="Arrow1Mstart"
       orient="auto"
       refY="0.0"
       refX="0.0"
       id="Arrow1Mstart"
       style="overflow:visible"
       inkscape:isstock="true">
      <path
         id="path834"
         d="M 0.0,0.0 L 5.0,-5.0 L -12.5,0.0 L 5.0,5.0 L 0.0,0.0 z "
         style="fill-rule:evenodd;stroke:#000000;stroke-width:1.0pt"
         transform="scale(0.4) translate(10,0)" />
    </marker>
    <marker
       inkscape:stockid="Arrow1Lend"
       orient="auto"
       refY="0.0"
       refX="0.0"
       id="marker1112"
       style="overflow:visible;"
       inkscape:isstock="true">
      <path
         id="path1110"
         d="M 0.0,0.0 L 5.0,-5.0 L -12.5,0.0 L 5.0,5.0 L 0.0,0.0 z "
         style="fill-rule:evenodd;stroke:#000000;stroke-width:1.0pt;"
         transform="scale(0.8) rotate(180) translate(12.5,0)" />
    </marker>
    <marker
       inkscape:stockid="Arrow1Lstart"
       orient="auto"
       refY="0.0"
       refX="0.0"
       id="marker1108"
       style="overflow:visible"
       inkscape:isstock="true">
      <path
         id="path1106"
         d="M 0.0,0.0 L 5.0,-5.0 L -12.5,0.0 L 5.0,5.0 L 0.0,0.0 z "
         style="fill-rule:evenodd;stroke:#000000;stroke-width:1.0pt"
         transform="scale(0.8) translate(12.5,0)" />
    </marker>
    <marker
       inkscape:stockid="Arrow1Lend"
       orient="auto"
       refY="0.0"
       refX="0.0"
       id="Arrow1Lend"
       style="overflow:visible;"
       inkscape:isstock="true">
      <path
         id="path831"
         d="M 0.0,0.0 L 5.0,-5.0 L -12.5,0.0 L 5.0,5.0 L 0.0,0.0 z "
         style="fill-rule:evenodd;stroke:#000000;stroke-width:1.0pt;"
         transform="scale(0.8) rotate(180) translate(12.5,0)" />
    </marker>
    <marker
       inkscape:stockid="Arrow1Lstart"
       orient="auto"
       refY="0.0"
       refX="0.0"
       id="Arrow1Lstart"
       style="overflow:visible"
       inkscape:isstock="true">
      <path
         id="path828"
         d="M 0.0,0.0 L 5.0,-5.0 L -12.5,0.0 L 5.0,5.0 L 0.0,0.0 z "
         style="fill-rule:evenodd;stroke:#000000;stroke-width:1.0pt"
         transform="scale(0.8) translate(12.5,0)" />
    </marker>
    <linearGradient
       inkscape:collect="always"
       xlink:href="#linearGradient1318"
       id="linearGradient1322"
       x1="68.971939"
       y1="206.89417"
       x2="56.884163"
       y2="249.51065"
       gradientUnits="userSpaceOnUse" />
    <linearGradient
       gradientTransform="translate(-9.9999998e-8,1.975e-6)"
       inkscape:collect="always"
       xlink:href="#linearGradient1318"
       id="linearGradient1322-6"
       x1="67.411552"
       y1="206.17793"
       x2="67.284988"
       y2="230.07878"
       gradientUnits="userSpaceOnUse" />
    <linearGradient
       gradientTransform="translate(-7.375e-7,3.2025e-6)"
       inkscape:collect="always"
       xlink:href="#linearGradient1318"
       id="linearGradient1322-2"
       x1="69.809189"
       y1="258.80753"
       x2="69.809189"
       y2="242.4157"
       gradientUnits="userSpaceOnUse" />
  </defs>
  <sodipodi:namedview
     id="base"
     pagecolor="#ffffff"
     bordercolor="#666666"
     borderopacity="1.0"
     inkscape:pageopacity="0.0"
     inkscape:pageshadow="2"
     inkscape:zoom="0.43677043"
     inkscape:cx="-272.05489"
     inkscape:cy="4.3927316"
     inkscape:document-units="mm"
     inkscape:current-layer="layer1"
     showgrid="false"
     units="px"
     inkscape:pagecheckerboard="true"
     inkscape:window-width="2048"
     inkscape:window-height="1088"
     inkscape:window-x="0"
     inkscape:window-y="27"
     inkscape:window-maximized="1" />
  <metadata
     id="metadata5">
    <rdf:RDF>
      <cc:Work
         rdf:about="">
        <dc:format>image/svg+xml</dc:format>
        <dc:type
           rdf:resource="http://purl.org/dc/dcmitype/StillImage" />
        <dc:title />
      </cc:Work>
    </rdf:RDF>
  </metadata>
  <g
     inkscape:label="Layer 1"
     inkscape:groupmode="layer"
     id="layer1"
     transform="translate(0,-161.00416)">
    <rect
       style="opacity:1;vector-effect:none;fill:#272727;fill-opacity:1;fill-rule:nonzero;stroke:none;stroke-width:0.23026425;stroke-linecap:butt;stroke-linejoin:miter;stroke-miterlimit:4;stroke-dasharray:none;stroke-dashoffset:0;stroke-opacity:0"
       id="rect826"
       width="146.37416"
       height="146.37416"
       x="-5.4520831"
       y="156.07957" />
    <g
       id="g1422"
       transform="translate(0,-3.1750782)">
      <path
         d="m 115.88113,239.21129 c -0.36705,0.56443 -0.87379,0.97802 -1.50778,1.24378 -0.64813,0.24743 -1.56151,0.37378 -2.7588,0.37378 h -1.34547 v 5.46676 h -1.80697 v -12.62613 h 4.00869 c 1.20352,0 2.16214,0.32802 2.88493,0.98305 0.71656,0.65108 1.07117,1.52153 1.07117,2.61069 0,0.7363 -0.1708,1.38358 -0.54577,1.94807 z m -10.53978,7.08432 -1.68028,-3.74904 h -5.377342 l -1.579043,3.74904 h -1.864652 l 5.435037,-12.68314 h 1.25554 l 5.65617,12.68314 z m -11.782876,0 h -1.81262 v -9.82486 l -3.888792,4.89057 h -0.329155 l -3.912545,-4.89057 v 9.82486 h -1.808096 v -12.62613 h 1.738532 l 4.152908,5.19427 4.167046,-5.19427 h 1.692722 z m -18.612583,11.66245 c 2.149694,-2.72841 3.900102,-5.54824 5.232562,-8.44741 h 7.204105 c -3.089655,4.02056 -7.427501,7.03858 -12.436667,8.44741 z m -5.1367,0.84944 v -9.29685 h 7.609894 c -1.585265,3.14683 -3.710074,6.20883 -6.398747,9.20229 -0.406072,0.038 -0.818535,0.0678 -1.211147,0.0946 z M 63.94241,236.57238 v 9.72323 h -1.693343 v -12.62613 h 1.459145 l 8.511114,9.8171 v -9.8171 h 1.718171 v 12.62613 h -1.553028 z m 3.342574,22.2402 c -0.418685,-0.0318 -0.830695,-0.0616 -1.242932,-0.10516 -2.689295,-2.98794 -4.813652,-6.04994 -6.392809,-9.19677 h 7.635741 z m -17.579475,-9.30193 h 7.178655 c 1.337889,2.89187 3.082076,5.70819 5.225718,8.43591 -4.997062,-1.4099 -9.322692,-4.42089 -12.404373,-8.43591 z m -5.986736,-3.21504 v -12.62613 h 7.159878 v 1.59103 h -5.346353 v 3.88116 h 5.156098 v 1.62491 h -5.156098 v 3.93019 h 5.504936 v 1.59884 z m -3.56416,0 -0.557812,-0.83223 c -0.01278,-0.025 -0.05124,-0.0813 -0.114413,-0.15863 l -0.348837,-0.48712 -0.551421,-0.93233 -0.608882,-0.98905 c -0.368067,-0.51364 -0.716904,-0.92678 -1.027284,-1.23117 -0.304893,-0.30376 -0.583205,-0.52472 -0.830864,-0.65882 -0.253654,-0.13918 -0.666117,-0.20942 -1.262613,-0.20942 h -0.462345 v 5.49877 h -1.807361 v -12.62613 h 3.151641 c 1.274715,0 2.282826,0.31699 3.037679,0.95104 0.742072,0.63451 1.122298,1.48946 1.122298,2.56934 0,0.73387 -0.183807,1.3686 -0.557812,1.90034 -0.36145,0.53463 -0.893642,0.9407 -1.585604,1.21245 0.406524,0.25999 0.805527,0.61527 1.192144,1.07191 0.386786,0.45685 0.932721,1.26102 1.629718,2.39763 0.444473,0.7229 0.793085,1.25487 1.059124,1.62316 l 0.659669,0.90026 z m -10.273286,-0.84947 c -1.547768,0.67228 -3.08892,1.00075 -4.623906,1.00075 -2.079508,0 -3.747288,-0.60243 -4.99678,-1.82523 -1.249334,-1.22568 -1.877417,-2.73946 -1.877417,-4.52889 0,-1.89508 0.653709,-3.4636 1.941042,-4.72441 1.293493,-1.24824 2.91682,-1.88229 4.869982,-1.88229 0.710287,0 1.382511,0.0733 2.02363,0.22645 0.639818,0.15287 1.439351,0.43237 2.422011,0.83069 v 1.85351 c -1.509366,-0.88323 -2.99973,-1.31956 -4.483421,-1.31956 -1.375894,0 -2.530203,0.47608 -3.481701,1.4256 -0.938717,0.94002 -1.414126,2.101 -1.414126,3.47667 0,1.44591 0.475409,2.62409 1.414126,3.53984 0.951498,0.91728 2.156594,1.37414 3.640567,1.37414 0.716225,0 1.585548,-0.16463 2.587438,-0.5004 l 0.170742,-0.0508 v -2.67714 H 25.63233 v -1.5856 h 4.248997 z m 19.456568,-24.18081 c 2.181196,0.92503 4.413801,1.67994 6.684242,2.28305 -0.89432,2.1933 -1.534761,4.37535 -1.934385,6.53041 h -8.707194 c 0.71023,-3.23319 2.074022,-6.21935 3.957337,-8.81346 z m 13.583396,-9.15874 c -2.428571,3.06376 -4.368951,6.10189 -5.853547,9.11372 -2.060957,-0.51918 -4.09013,-1.18569 -6.081298,-2.00378 3.126926,-3.45105 7.261283,-5.96801 11.934845,-7.10994 z m -6.271948,17.9722 c 0.387069,-1.95887 1.008959,-3.9428 1.858374,-5.94188 2.866485,0.59649 5.80276,0.94024 8.777267,1.02111 v 4.92077 z m 3.291503,9.06288 v 1.62491 H 54.7852 v 3.93019 h 5.492098 v 1.59884 h -7.306301 v -12.62613 h 7.160047 v 1.59103 H 54.7852 v 3.88116 z m 7.344138,-27.66935 v 11.1559 c -2.606893,-0.0698 -5.175102,-0.34268 -7.692749,-0.84371 1.718568,-3.38074 4.083966,-6.80397 7.089805,-10.28012 0.196871,-0.0115 0.399907,-0.0255 0.602944,-0.0321 z m 2.524207,13.6857 c 2.961556,-0.0698 5.884936,-0.41138 8.764202,-0.99663 0.837029,1.9936 1.451793,3.97176 1.838636,5.9174 H 69.809191 Z m 0,-13.6857 c 0.190481,0.007 0.38,0.0205 0.576589,0.0321 3.000296,3.4817 5.377911,6.92584 7.096648,10.31214 -2.511087,0.4814 -5.086082,0.75423 -7.673237,0.81768 z m 16.322348,7.78199 c -2.002649,0.81232 -4.039231,1.47798 -6.125016,1.99711 -1.477243,-3.02417 -3.437475,-6.08107 -5.872776,-9.1506 4.699239,1.1477 8.853277,3.6848 11.997792,7.15349 z m 1.649738,2.04241 c 1.857865,2.59298 3.216341,5.56788 3.919332,8.78207 h -8.732248 c -0.380622,-2.14952 -1.034975,-4.31081 -1.921773,-6.49331 2.289953,-0.60226 4.534095,-1.36311 6.734689,-2.28876 z m 24.454253,8.78207 H 95.138083 c -2.384401,-12.51058 -13.400381,-22.01086 -26.591448,-22.01086 -13.203623,0 -24.219206,9.50028 -26.591279,22.01086 H 23.234921 c -5.270341,0 -9.582737,4.31353 -9.582737,9.58359 v 0.26621 c 0,5.26859 4.312396,9.58206 9.582737,9.58206 h 22.386 c 4.794423,7.61652 13.267022,12.68336 22.925714,12.68336 9.639915,0 18.118792,-5.06684 22.919832,-12.68336 h 20.769063 c 5.26989,0 9.58229,-4.31347 9.58229,-9.58206 v -0.26621 c 0,-5.27006 -4.3124,-9.58359 -9.58229,-9.58359 z m -13.247679,10.87669 h 3.949869 l -2.04846,-4.57199 z m 13.158319,-5.69497 h -1.87709 v 3.9773 h 1.99134 c 0.73635,0 1.30078,-0.17962 1.69894,-0.52093 0.40041,-0.35506 0.59101,-0.84393 0.59101,-1.49501 0,-1.30853 -0.79292,-1.96136 -2.4042,-1.96136 z m -74.445975,0.8247 c -0.208522,-0.32254 -0.500407,-0.5452 -0.881255,-0.67929 -0.380226,-0.13987 -1.002116,-0.20943 -1.889989,-0.20943 h -0.538809 v 4.00926 h 0.691227 c 0.907102,0 1.528144,-0.0829 1.864595,-0.23415 0.336056,-0.15864 0.608656,-0.3999 0.786242,-0.71141 0.190254,-0.31768 0.285042,-0.67998 0.285042,-1.09131 0,-0.39284 -0.101009,-0.75514 -0.317053,-1.08367"
         style="fill:url(#linearGradient1322);fill-opacity:1;fill-rule:nonzero;stroke:none;stroke-width:0.05655601"
         id="path1247"
         inkscape:connector-curvature="0" />
      <path
         d="m 67.411556,206.17794 c 0,0 0.09496,-7.76271 7.197827,-9.93785 0,0 2.99973,-1.26233 8.250956,0.53898 -0.811013,4.98428 -3.430688,7.69218 -6.329183,9.34786 -2.905282,1.64187 -5.403361,1.28178 -7.55922,0.76724 0.837255,-1.77535 1.91493,-3.04956 3.615004,-4.96568 1.934215,-1.78773 4.414762,-3.23444 6.011338,-3.72252 -5.377345,1.03385 -7.920669,3.55738 -11.186722,7.97197"
         style="fill:#80cc28;fill-opacity:1;fill-rule:nonzero;stroke:none;stroke-width:0.05655601"
         id="path1249"
         inkscape:connector-curvature="0" />
      <path
         d="m 94.827025,253.61452 h 0.324066 c 0.354606,0 0.665099,-0.13409 0.665099,-0.47015 0,-0.24766 -0.170234,-0.48689 -0.665099,-0.48689 -0.14648,0 -0.24715,0.017 -0.324066,0.017 z m 0,1.52124 h -0.436612 v -2.75246 c 0.227355,-0.0378 0.44962,-0.0698 0.77312,-0.0698 0.424736,0 0.69677,0.089 0.86248,0.20942 0.165143,0.11928 0.253936,0.30422 0.253936,0.57065 0,0.36253 -0.241494,0.58298 -0.539544,0.67426 v 0.0243 c 0.240928,0.0435 0.405506,0.26004 0.463193,0.66611 0.06278,0.43034 0.127251,0.59446 0.177021,0.67754 h -0.462063 c -0.0707,-0.0831 -0.134038,-0.34154 -0.190594,-0.69829 -0.06334,-0.35308 -0.235273,-0.48141 -0.589879,-0.48141 h -0.311058 z m 0.463759,-3.52632 c -1.085309,0 -1.978894,0.93843 -1.978894,2.08635 0,1.18722 0.893585,2.10626 1.990206,2.10626 1.092096,0.006 1.978894,-0.91904 1.978894,-2.09319 0,-1.16099 -0.886798,-2.09942 -1.978894,-2.09942 z m 0.01131,-0.38113 c 1.358475,0 2.423425,1.09074 2.423425,2.46748 0,1.40219 -1.06495,2.49135 -2.434737,2.49135 -1.357344,0 -2.45453,-1.08916 -2.45453,-2.49135 0,-1.37674 1.097186,-2.46748 2.45453,-2.46748 h 0.01131"
         style="fill:#80cc28;fill-opacity:1;fill-rule:nonzero;stroke:none;stroke-width:0.05655601"
         id="path1251"
         inkscape:connector-curvature="0" />
      <path
         sodipodi:nodetypes="ccsccccscsccccccccccccccccccccccccccccccccccccccccccccccccccccccccsccccscsccscccccscscscccscscsccccccccccccccccccccccssccsscccccsccscssccsccsccsc"
         d="m 115.88113,239.21128 c -0.36705,0.56444 -0.87379,0.97802 -1.50778,1.24379 -0.64813,0.24742 -1.56151,0.37377 -2.7588,0.37377 h -1.34547 v 5.46677 h -1.80697 v -12.62613 h 4.00869 c 1.20352,0 2.16214,0.32802 2.88493,0.98305 0.71656,0.65108 1.07117,1.52153 1.07117,2.61069 0,0.7363 -0.1708,1.38358 -0.54577,1.94806 z m -10.53978,7.08433 -1.68028,-3.74905 h -5.377341 l -1.579043,3.74905 h -1.864652 l 5.435036,-12.68314 h 1.25554 l 5.65617,12.68314 z m -11.782875,0 h -1.812621 v -9.82486 l -3.888793,4.89057 h -0.329155 l -3.912543,-4.89057 v 9.82486 h -1.808096 v -12.62613 h 1.73853 l 4.152909,5.19427 4.167047,-5.19427 h 1.692722 z m -29.616066,-9.72324 v 9.72324 h -1.693343 v -12.62613 h 1.459144 l 8.511115,9.8171 v -9.8171 h 1.718172 v 12.62613 h -1.553028 z m -20.223636,9.72324 v -12.62613 h 7.159878 v 1.59103 h -5.346353 v 3.88116 h 5.156097 v 1.62491 h -5.156097 v 3.93019 h 5.504935 v 1.59884 z m -3.56416,0 -0.557813,-0.83223 c -0.01278,-0.025 -0.05124,-0.0813 -0.114413,-0.15863 l -0.348837,-0.48712 -0.551421,-0.93233 -0.608882,-0.98905 c -0.368067,-0.51364 -0.716904,-0.92679 -1.027284,-1.23117 -0.304893,-0.30376 -0.583205,-0.52472 -0.830864,-0.65883 -0.253654,-0.13918 -0.666117,-0.20942 -1.262613,-0.20942 h -0.462345 v 5.49878 H 32.58278 v -12.62613 h 3.151641 c 1.274715,0 2.282826,0.31699 3.037679,0.95104 0.742072,0.63451 1.122298,1.48945 1.122298,2.56934 0,0.73386 -0.183807,1.36859 -0.557812,1.90034 -0.36145,0.53463 -0.893642,0.94069 -1.585604,1.21245 0.406524,0.25999 0.805527,0.61527 1.192144,1.07191 0.386786,0.45684 0.932721,1.26101 1.629719,2.39763 0.444471,0.7229 0.793084,1.25486 1.059124,1.62315 l 0.659667,0.90027 z m -10.273287,-0.84947 c -1.547768,0.67228 -3.08892,1.00075 -4.623906,1.00075 -2.079508,0 -3.747288,-0.60244 -4.99678,-1.82523 -1.249334,-1.22569 -1.877417,-2.73947 -1.877417,-4.52889 0,-1.89508 0.653709,-3.4636 1.941042,-4.72441 1.293493,-1.24824 2.91682,-1.88229 4.869982,-1.88229 0.710287,0 1.382511,0.0733 2.02363,0.22645 0.639818,0.15287 1.439351,0.43237 2.422011,0.83069 v 1.85351 c -1.509366,-0.88323 -2.99973,-1.31956 -4.483421,-1.31956 -1.375894,0 -2.530203,0.47608 -3.481701,1.4256 -0.938717,0.94001 -1.414126,2.10099 -1.414126,3.47667 0,1.44591 0.475409,2.62408 1.414126,3.53984 0.951498,0.91728 2.156594,1.37413 3.640567,1.37413 0.716225,0 1.585548,-0.16463 2.587438,-0.5004 l 0.170742,-0.0508 v -2.67715 h -2.441184 v -1.5856 h 4.248997 z m 30.059519,-6.30447 v 1.62491 h -5.155647 v 3.93019 h 5.4921 v 1.59884 h -7.306302 v -12.62613 h 7.160047 v 1.59103 h -5.345845 v 3.88116 z m 52.294685,-9.06288 c -55.586187,0 -55.26964,0 -89.00061,0 -5.270341,0 -9.582737,4.31353 -9.582737,9.58359 v 0.26621 c 0,5.26858 4.312396,9.58206 9.582737,9.58206 56.943533,0 55.618881,0 89.00061,0 5.26989,0 9.58229,-4.31348 9.58229,-9.58206 v -0.26621 c 0,-5.27006 -4.3124,-9.58359 -9.58229,-9.58359 z m -13.24768,10.87668 h 3.94987 l -2.04846,-4.57198 z m 13.15832,-5.69496 h -1.87709 v 3.97729 h 1.99134 c 0.73635,0 1.30078,-0.17961 1.69894,-0.52093 0.40041,-0.35505 0.59101,-0.84393 0.59101,-1.495 0,-1.30853 -0.79292,-1.96136 -2.4042,-1.96136 z m -74.445976,0.8247 c -0.208522,-0.32254 -0.500407,-0.5452 -0.881255,-0.67929 -0.380226,-0.13987 -1.002116,-0.20943 -1.889989,-0.20943 h -0.538809 v 4.00925 h 0.691227 c 0.907102,0 1.528144,-0.0829 1.864595,-0.23414 0.336056,-0.15864 0.608656,-0.39991 0.786242,-0.71142 0.190254,-0.31767 0.285042,-0.67998 0.285042,-1.0913 0,-0.39285 -0.101009,-0.75514 -0.317053,-1.08367"
         style="fill:#80cc28;fill-opacity:1;fill-rule:nonzero;stroke:none;stroke-width:0.05655601"
         id="path1247-3"
         inkscape:connector-curvature="0" />
      <path
         d="m 115.88113,239.21128 c -0.36705,0.56444 -0.87379,0.97802 -1.50778,1.24379 -0.64813,0.24742 -1.56151,0.37377 -2.7588,0.37377 h -1.34547 v 5.46677 h -1.80697 v -12.62613 h 4.00869 c 1.20352,0 2.16214,0.32802 2.88493,0.98305 0.71656,0.65108 1.07117,1.52153 1.07117,2.61069 0,0.7363 -0.1708,1.38358 -0.54577,1.94806 z m -10.53978,7.08433 -1.68028,-3.74905 h -5.377337 l -1.57905,3.74905 h -1.86465 l 5.435037,-12.68314 h 1.25554 l 5.65617,12.68314 z m -11.782877,0 h -1.81262 v -9.82486 l -3.888791,4.89057 h -0.329155 l -3.912543,-4.89057 v 9.82486 h -1.808096 v -12.62613 h 1.73853 l 4.152909,5.19427 4.167046,-5.19427 h 1.69272 z m -18.612581,11.66244 c 2.149692,-2.7284 3.900102,-5.54824 5.232561,-8.4474 h 7.204107 c -3.089656,4.02055 -7.427503,7.03857 -12.436668,8.4474 z m -5.136699,0.84945 v -9.29685 h 7.609892 c -1.585263,3.14683 -3.710073,6.20883 -6.398745,9.20228 -0.406074,0.038 -0.818536,0.0678 -1.211147,0.0946 z M 63.94241,236.57237 v 9.72324 h -1.693343 v -12.62613 h 1.459144 l 8.511115,9.8171 v -9.8171 h 1.718172 v 12.62613 H 72.38447 Z m 3.342575,22.24021 c -0.418685,-0.0318 -0.830696,-0.0616 -1.242932,-0.10516 -2.689294,-2.98794 -4.813652,-6.04994 -6.392809,-9.19677 h 7.635741 z m -17.579477,-9.30193 h 7.178656 c 1.337891,2.89186 3.082078,5.70819 5.225718,8.43591 -4.997062,-1.4099 -9.32269,-4.42089 -12.404374,-8.43591 z m -5.986734,-3.21504 v -12.62613 h 7.159878 v 1.59103 h -5.346353 v 3.88116 h 5.156097 v 1.62491 h -5.156097 v 3.93019 h 5.504935 v 1.59884 z m -3.56416,0 -0.557813,-0.83223 c -0.01278,-0.025 -0.05124,-0.0813 -0.114413,-0.15863 l -0.348837,-0.48712 -0.551421,-0.93233 -0.608882,-0.98905 c -0.368067,-0.51364 -0.716904,-0.92679 -1.027284,-1.23117 -0.304893,-0.30376 -0.583205,-0.52472 -0.830864,-0.65883 -0.253654,-0.13918 -0.666117,-0.20942 -1.262613,-0.20942 h -0.462345 v 5.49878 h -1.807361 v -12.62613 h 3.151641 c 1.274715,0 2.282826,0.31699 3.037679,0.95104 0.742072,0.63451 1.122298,1.48945 1.122298,2.56934 0,0.73386 -0.183807,1.36859 -0.557812,1.90034 -0.36145,0.53463 -0.893642,0.94069 -1.585604,1.21245 0.406524,0.25999 0.805527,0.61527 1.192144,1.07191 0.386786,0.45684 0.932721,1.26101 1.629719,2.39763 0.444471,0.7229 0.793084,1.25486 1.059124,1.62315 l 0.659667,0.90027 z m -10.273287,-0.84947 c -1.547768,0.67228 -3.08892,1.00075 -4.623906,1.00075 -2.079508,0 -3.747288,-0.60244 -4.99678,-1.82523 -1.249334,-1.22569 -1.877417,-2.73947 -1.877417,-4.52889 0,-1.89508 0.653709,-3.4636 1.941042,-4.72441 1.293493,-1.24824 2.91682,-1.88229 4.869982,-1.88229 0.710287,0 1.382511,0.0733 2.02363,0.22645 0.639818,0.15287 1.439351,0.43237 2.422011,0.83069 v 1.85351 c -1.509366,-0.88323 -2.99973,-1.31956 -4.483421,-1.31956 -1.375894,0 -2.530203,0.47608 -3.481701,1.4256 -0.938717,0.94001 -1.414126,2.10099 -1.414126,3.47667 0,1.44591 0.475409,2.62408 1.414126,3.53984 0.951498,0.91728 2.156594,1.37413 3.640567,1.37413 0.716225,0 1.585548,-0.16463 2.587438,-0.5004 l 0.170742,-0.0508 v -2.67715 H 25.63233 v -1.5856 h 4.248997 z m 19.456568,-24.18081 c 2.181197,0.92503 4.413801,1.67994 6.684243,2.28305 -0.894321,2.1933 -1.534761,4.37535 -1.934387,6.53041 h -8.707194 c 0.710231,-3.23319 2.074025,-6.21935 3.957338,-8.81346 z m 13.583397,-9.15874 c -2.428572,3.06376 -4.368952,6.10189 -5.853547,9.11372 -2.060957,-0.51918 -4.090131,-1.18569 -6.081299,-2.00378 3.126925,-3.45105 7.261285,-5.96801 11.934846,-7.10994 z m -6.271949,17.9722 c 0.387069,-1.95887 1.008958,-3.9428 1.858374,-5.94188 2.866487,0.59649 5.802762,0.94024 8.777268,1.02111 v 4.92077 z m 3.291503,9.06288 v 1.62491 h -5.155647 v 3.93019 h 5.4921 v 1.59884 h -7.306302 v -12.62613 h 7.160047 v 1.59103 h -5.345845 v 3.88116 z m 7.344139,-27.66935 v 11.1559 c -2.606893,-0.0698 -5.175103,-0.34268 -7.692749,-0.84371 1.718567,-3.38074 4.083965,-6.80397 7.089804,-10.28012 0.196871,-0.0115 0.399906,-0.0255 0.602945,-0.0321 z m 2.524208,13.6857 c 2.961554,-0.0698 5.884936,-0.41138 8.7642,-0.99663 0.83703,1.9936 1.451794,3.97176 1.838637,5.9174 H 69.809193 Z m 0,-13.6857 c 0.190481,0.007 0.379998,0.0205 0.576589,0.0321 3.000295,3.4817 5.37791,6.92584 7.096646,10.31214 -2.511087,0.4814 -5.086081,0.75423 -7.673235,0.81768 z m 16.322346,7.78199 c -2.002649,0.81232 -4.039231,1.47798 -6.125017,1.99711 -1.477242,-3.02417 -3.437474,-6.08107 -5.872775,-9.1506 4.69924,1.1477 8.853277,3.6848 11.997792,7.15349 z m 1.649739,2.04241 c 1.857865,2.59298 3.216341,5.56788 3.919335,8.78207 h -8.732251 c -0.380623,-2.14952 -1.034975,-4.31081 -1.921774,-6.49331 2.289954,-0.60226 4.534096,-1.36311 6.73469,-2.28876 z m 24.454252,8.78207 H 95.138083 c -2.3844,-12.51058 -13.400381,-22.01086 -26.591447,-22.01086 -13.203623,0 -24.219207,9.50028 -26.591279,22.01086 H 23.234921 c -5.270341,0 -9.582737,4.31353 -9.582737,9.58359 v 0.26621 c 0,5.26858 4.312396,9.58206 9.582737,9.58206 h 22.386 c 4.794424,7.61652 13.267022,12.68336 22.925715,12.68336 9.639916,0 18.118793,-5.06684 22.919827,-12.68336 h 20.769067 c 5.26989,0 9.58229,-4.31348 9.58229,-9.58206 v -0.26621 c 0,-5.27006 -4.3124,-9.58359 -9.58229,-9.58359 z m -13.247677,10.87668 h 3.949867 l -2.04846,-4.57198 z m 13.158317,-5.69496 h -1.87709 v 3.97729 h 1.99134 c 0.73635,0 1.30078,-0.17961 1.69894,-0.52093 0.40041,-0.35505 0.59101,-0.84393 0.59101,-1.495 0,-1.30853 -0.79292,-1.96136 -2.4042,-1.96136 z m -74.445975,0.8247 c -0.208522,-0.32254 -0.500407,-0.5452 -0.881255,-0.67929 -0.380226,-0.13987 -1.002116,-0.20943 -1.889989,-0.20943 h -0.538809 v 4.00925 h 0.691227 c 0.907102,0 1.528144,-0.0829 1.864595,-0.23414 0.336056,-0.15864 0.608656,-0.39991 0.786242,-0.71142 0.190254,-0.31767 0.285042,-0.67998 0.285042,-1.0913 0,-0.39285 -0.101009,-0.75514 -0.317053,-1.08367"
         style="fill:url(#linearGradient1322-6);fill-opacity:1;fill-rule:nonzero;stroke:none;stroke-width:0.05655601"
         id="path1247-1"
         inkscape:connector-curvature="0" />
      <path
         sodipodi:nodetypes="ccsccccscscccccccccccccccccccccccccccccccccccccccccccccccccccccccccccccccccccccccccccsccccscsccccccccscscscccscscscccccccccccccccccccccccssscscssscccccsccscssccsccsccsc"
         d="m 115.88114,239.21129 c -0.36705,0.56443 -0.87379,0.97802 -1.50778,1.24378 -0.64813,0.24743 -1.56151,0.37378 -2.7588,0.37378 h -1.34547 v 5.46676 h -1.80697 v -12.62613 h 4.00869 c 1.20352,0 2.16214,0.32802 2.88493,0.98305 0.71656,0.65108 1.07117,1.52153 1.07117,2.61069 0,0.7363 -0.1708,1.38358 -0.54577,1.94807 z m -10.53978,7.08432 -1.68028,-3.74904 h -5.377346 l -1.57905,3.74904 h -1.86465 l 5.435046,-12.68314 h 1.25554 l 5.65617,12.68314 z m -11.782886,0 h -1.81262 v -9.82486 l -3.88879,4.89057 h -0.32916 l -3.912541,-4.89057 v 9.82486 h -1.808096 v -12.62613 h 1.73853 l 4.152907,5.19427 4.16705,-5.19427 h 1.69272 z m -18.612583,11.66245 c 2.149692,-2.72841 3.900102,-5.54824 5.232561,-8.44741 h 7.204112 c -3.089661,4.02056 -7.427508,7.03858 -12.436673,8.44741 z m -5.136699,0.84944 v -9.29685 h 7.609892 c -1.585263,3.14683 -3.710073,6.20883 -6.398745,9.20229 -0.406074,0.038 -0.818536,0.0678 -1.211147,0.0946 z m -5.866783,-22.23512 v 9.72323 h -1.693343 v -12.62613 h 1.459144 l 8.511115,9.8171 v -9.8171 h 1.718172 v 12.62613 h -1.553028 z m 3.342575,22.2402 c -0.418685,-0.0318 -0.830696,-0.0616 -1.242932,-0.10517 -2.689294,-2.98793 -4.813652,-6.04993 -6.392809,-9.19676 h 7.635741 z m -17.579477,-9.30193 h 7.178656 c 1.337891,2.89187 3.082078,5.70819 5.225718,8.4359 -4.997062,-1.40989 -9.32269,-4.42088 -12.404374,-8.4359 z m -5.986734,-3.21504 v -12.62613 h 7.159878 v 1.59103 h -5.346353 v 3.88116 h 5.156097 v 1.62491 h -5.156097 v 3.93019 h 5.504935 v 1.59884 z m -3.56416,0 -0.557813,-0.83223 c -0.01278,-0.025 -0.05124,-0.0813 -0.114413,-0.15863 l -0.348837,-0.48712 -0.551421,-0.93233 -0.608882,-0.98905 c -0.368067,-0.51364 -0.716904,-0.92678 -1.027284,-1.23117 -0.304893,-0.30376 -0.583205,-0.52472 -0.830864,-0.65882 -0.253654,-0.13918 -0.666117,-0.20942 -1.262613,-0.20942 h -0.462345 v 5.49877 H 32.58278 v -12.62613 h 3.151641 c 1.274715,0 2.282826,0.31699 3.037679,0.95104 0.742072,0.63451 1.122298,1.48946 1.122298,2.56934 0,0.73387 -0.183807,1.3686 -0.557812,1.90034 -0.36145,0.53463 -0.893642,0.9407 -1.585604,1.21245 0.406524,0.25999 0.805527,0.61527 1.192144,1.07191 0.386786,0.45685 0.932721,1.26102 1.629719,2.39763 0.444471,0.7229 0.793084,1.25487 1.059124,1.62316 l 0.659667,0.90026 z m -10.273287,-0.84947 c -1.547768,0.67228 -3.08892,1.00075 -4.623906,1.00075 -2.079508,0 -3.747288,-0.60243 -4.99678,-1.82523 -1.249334,-1.22568 -1.877417,-2.73946 -1.877417,-4.52889 0,-1.89508 0.653709,-3.4636 1.941042,-4.72441 1.293493,-1.24824 2.91682,-1.88229 4.869982,-1.88229 0.710287,0 1.382511,0.0733 2.02363,0.22645 0.639818,0.15287 1.439351,0.43237 2.422011,0.83069 v 1.85351 c -1.509366,-0.88323 -2.99973,-1.31956 -4.483421,-1.31956 -1.375894,0 -2.530203,0.47608 -3.481701,1.4256 -0.938717,0.94002 -1.414126,2.101 -1.414126,3.47667 0,1.44591 0.475409,2.62409 1.414126,3.53984 0.951498,0.91728 2.156594,1.37414 3.640567,1.37414 0.716225,0 1.585548,-0.16463 2.587438,-0.5004 l 0.170742,-0.0508 v -2.67714 h -2.441184 v -1.5856 h 4.248997 z m 30.059519,-6.30447 v 1.62491 h -5.155647 v 3.93019 h 5.4921 v 1.59884 h -7.306302 v -12.62613 h 7.160047 v 1.59103 h -5.345845 v 3.88116 z m 52.294695,-9.06288 c -20.534926,0 -20.534926,0 -42.426348,0 -27.853836,0 -21.899448,0 -46.574272,0 -5.270341,0 -9.582737,4.31353 -9.582737,9.58359 v 0.26621 c 0,5.26859 4.312396,9.58206 9.582737,9.58206 h 22.386 c 4.794424,7.61651 13.267022,12.68335 22.925715,12.68335 9.639916,0 18.118789,-5.06684 22.919829,-12.68335 h 20.769076 c 5.26989,0 9.58229,-4.31347 9.58229,-9.58206 v -0.26621 c 0,-5.27006 -4.3124,-9.58359 -9.58229,-9.58359 z m -13.247688,10.87669 h 3.949878 l -2.04846,-4.57199 z m 13.158328,-5.69497 h -1.87709 v 3.9773 h 1.99134 c 0.73635,0 1.30078,-0.17962 1.69894,-0.52093 0.40041,-0.35506 0.59101,-0.84393 0.59101,-1.49501 0,-1.30853 -0.79292,-1.96136 -2.4042,-1.96136 z m -74.445986,0.8247 c -0.208522,-0.32254 -0.500407,-0.5452 -0.881255,-0.67929 -0.380226,-0.13987 -1.002116,-0.20943 -1.889989,-0.20943 h -0.538809 v 4.00926 h 0.691227 c 0.907102,0 1.528144,-0.0829 1.864595,-0.23415 0.336056,-0.15864 0.608656,-0.3999 0.786242,-0.71141 0.190254,-0.31768 0.285042,-0.67998 0.285042,-1.09131 0,-0.39284 -0.101009,-0.75514 -0.317053,-1.08367"
         style="fill:url(#linearGradient1322-2);fill-opacity:1;fill-rule:nonzero;stroke:none;stroke-width:0.05655601"
         id="path1247-9"
         inkscape:connector-curvature="0" />
    </g>
  </g>
</svg>
